xrun.log
xrun: 25.03-s001: (c) Copyright 1995-2025 Cadence Design Systems, Inc.
TOOL:	xrun	25.03-s001: Started on Jun 15, 2026 at 13:28:57 EDT
xrun
	-Q
	-unbuffered
	-timescale 1ns/1ns
	-sysv
	-access +rw
	design.sv
	testbench.sv
	Top level design units:
		i2c_tb
Loading snapshot worklib.i2c_tb:sv .................... Done
xcelium> source /xcelium25.03/tools/xcelium/files/xmsimrc
xcelium> run
Time=0, scl=0, sda=zzzzzzzz, address=00, read=0, write=0, bit_counter= 0, adress_state=0, stop=0, start=0

=== Test 1: START Condition ===
Time=150000, scl=0, sda=00000000, address=00, read=0, write=0, bit_counter= 0, adress_state=0, stop=0, start=0
Time=290000, scl=1, sda=zzzzzzzz, address=00, read=0, write=0, bit_counter= 0, adress_state=0, stop=0, start=x

=== Test 2: Address Write ===
Time=490000, scl=0, sda=00000000, address=00, read=0, write=0, bit_counter= 0, adress_state=0, stop=0, start=0
Time=495000, scl=0, sda=zzzzzzzz, address=00, read=0, write=0, bit_counter= 0, adress_state=0, stop=0, start=0
Time=690000, scl=1, sda=zzzzzzzz, address=00, read=0, write=0, bit_counter= 0, adress_state=0, stop=0, start=x
Time=890000, scl=0, sda=zzzzzzzz, address=00, read=0, write=0, bit_counter= 0, adress_state=0, stop=0, start=0
Time=895000, scl=0, sda=00000000, address=00, read=0, write=0, bit_counter= 0, adress_state=0, stop=0, start=0
Time=1090000, scl=1, sda=00000000, address=00, read=0, write=0, bit_counter= 0, adress_state=0, stop=0, start=1
Time=1110000, scl=1, sda=00000000, address=00, read=0, write=0, bit_counter= 1, adress_state=0, stop=0, start=1
Time=1130000, scl=1, sda=00000000, address=00, read=0, write=0, bit_counter= 2, adress_state=0, stop=0, start=1
Time=1150000, scl=1, sda=00000000, address=00, read=0, write=0, bit_counter= 3, adress_state=0, stop=0, start=1
Time=1170000, scl=1, sda=00000000, address=00, read=0, write=0, bit_counter= 4, adress_state=0, stop=0, start=1
Time=1190000, scl=1, sda=00000000, address=00, read=0, write=0, bit_counter= 5, adress_state=0, stop=0, start=1
Time=1210000, scl=1, sda=00000000, address=00, read=0, write=0, bit_counter= 6, adress_state=0, stop=0, start=1
Time=1230000, scl=1, sda=00000000, address=00, read=0, write=0, bit_counter= 7, adress_state=0, stop=0, start=1
Time=1250000, scl=1, sda=00000000, address=00, read=0, write=0, bit_counter= 8, adress_state=0, stop=0, start=1
Time=1270000, scl=1, sda=00000000, address=00, read=0, write=1, bit_counter= 9, adress_state=0, stop=0, start=0
Time=1290000, scl=0, sda=00000000, address=00, read=0, write=1, bit_counter= 0, adress_state=1, stop=0, start=0
Time=1295000, scl=0, sda=zzzzzzzz, address=00, read=0, write=1, bit_counter= 0, adress_state=1, stop=0, start=0
Time=1310000, scl=0, sda=zzzzzzzz, address=00, read=0, write=1, bit_counter= 1, adress_state=1, stop=0, start=0
Time=1330000, scl=0, sda=zzzzzzzz, address=00, read=0, write=1, bit_counter= 2, adress_state=1, stop=0, start=0
Time=1350000, scl=0, sda=zzzzzzzz, address=00, read=0, write=1, bit_counter= 3, adress_state=1, stop=0, start=0
Time=1370000, scl=0, sda=zzzzzzzz, address=00, read=0, write=1, bit_counter= 4, adress_state=1, stop=0, start=0
Time=1390000, scl=0, sda=zzzzzzzz, address=00, read=0, write=1, bit_counter= 5, adress_state=1, stop=0, start=0
Time=1410000, scl=0, sda=00000000, address=00, read=0, write=1, bit_counter= 6, adress_state=1, stop=0, start=0
Time=1430000, scl=0, sda=zzzzzzzz, address=00, read=0, write=1, bit_counter= 7, adress_state=1, stop=0, start=0
Time=1450000, scl=0, sda=00000000, address=00, read=0, write=1, bit_counter= 8, adress_state=1, stop=0, start=0
Time=1470000, scl=0, sda=zzzzzzzz, address=00, read=0, write=0, bit_counter= 0, adress_state=1, stop=0, start=0
Time=1490000, scl=1, sda=zzzzzzzz, address=00, read=0, write=0, bit_counter= 0, adress_state=1, stop=0, start=x
Time=1510000, scl=1, sda=zzzzzzzz, address=00, read=0, write=0, bit_counter= 0, adress_state=0, stop=1, start=x
Time=1690000, scl=0, sda=zzzzzzzz, address=00, read=0, write=0, bit_counter= 0, adress_state=0, stop=1, start=0
Time=1695000, scl=0, sda=00000000, address=00, read=0, write=0, bit_counter= 0, adress_state=0, stop=1, start=0
Time=1890000, scl=1, sda=00000000, address=00, read=0, write=0, bit_counter= 0, adress_state=0, stop=1, start=1
Time=1910000, scl=1, sda=00000000, address=00, read=0, write=0, bit_counter= 1, adress_state=0, stop=1, start=1
Time=1930000, scl=1, sda=00000000, address=00, read=0, write=0, bit_counter= 2, adress_state=0, stop=1, start=1
Time=1950000, scl=1, sda=00000000, address=00, read=0, write=0, bit_counter= 3, adress_state=0, stop=1, start=1
Time=1970000, scl=1, sda=00000000, address=00, read=0, write=0, bit_counter= 4, adress_state=0, stop=1, start=1
Time=1990000, scl=1, sda=00000000, address=00, read=0, write=0, bit_counter= 5, adress_state=0, stop=1, start=1
Time=2010000, scl=1, sda=00000000, address=00, read=0, write=0, bit_counter= 6, adress_state=0, stop=1, start=1
Time=2030000, scl=1, sda=00000000, address=00, read=0, write=0, bit_counter= 7, adress_state=0, stop=1, start=1
Time=2050000, scl=1, sda=00000000, address=00, read=0, write=0, bit_counter= 8, adress_state=0, stop=1, start=1
Time=2070000, scl=1, sda=00000000, address=00, read=0, write=1, bit_counter= 9, adress_state=0, stop=1, start=0
Time=2090000, scl=0, sda=00000000, address=00, read=0, write=1, bit_counter= 0, adress_state=1, stop=1, start=0
Time=2110000, scl=0, sda=00000000, address=00, read=0, write=1, bit_counter= 1, adress_state=1, stop=1, start=0
Time=2130000, scl=0, sda=00000000, address=00, read=0, write=1, bit_counter= 2, adress_state=1, stop=1, start=0
Time=2150000, scl=0, sda=00000000, address=00, read=0, write=1, bit_counter= 3, adress_state=1, stop=1, start=0
Time=2170000, scl=0, sda=00000000, address=00, read=0, write=1, bit_counter= 4, adress_state=1, stop=1, start=0
Time=2190000, scl=0, sda=00000000, address=00, read=0, write=1, bit_counter= 5, adress_state=1, stop=1, start=0
Time=2210000, scl=0, sda=00000000, address=00, read=0, write=1, bit_counter= 6, adress_state=1, stop=1, start=0
Time=2230000, scl=0, sda=00000000, address=00, read=0, write=1, bit_counter= 7, adress_state=1, stop=1, start=0
Time=2250000, scl=0, sda=00000000, address=00, read=0, write=1, bit_counter= 8, adress_state=1, stop=1, start=0
Time=2270000, scl=0, sda=00000000, address=00, read=0, write=0, bit_counter= 0, adress_state=1, stop=1, start=0
Time=2290000, scl=1, sda=00000000, address=00, read=0, write=0, bit_counter= 0, adress_state=1, stop=1, start=1
Time=2310000, scl=1, sda=00000000, address=00, read=0, write=0, bit_counter= 1, adress_state=1, stop=1, start=1
Time=2330000, scl=1, sda=00000000, address=00, read=0, write=0, bit_counter= 2, adress_state=1, stop=1, start=1
Time=2350000, scl=1, sda=00000000, address=00, read=0, write=0, bit_counter= 3, adress_state=1, stop=1, start=1
Time=2370000, scl=1, sda=00000000, address=00, read=0, write=0, bit_counter= 4, adress_state=1, stop=1, start=1
Time=2390000, scl=1, sda=00000000, address=00, read=0, write=0, bit_counter= 5, adress_state=1, stop=1, start=1
Time=2410000, scl=1, sda=00000000, address=00, read=0, write=0, bit_counter= 6, adress_state=1, stop=1, start=1
Time=2430000, scl=1, sda=00000000, address=00, read=0, write=0, bit_counter= 7, adress_state=1, stop=1, start=1
Time=2450000, scl=1, sda=00000000, address=00, read=0, write=0, bit_counter= 8, adress_state=1, stop=1, start=1
Time=2470000, scl=1, sda=00000000, address=00, read=0, write=1, bit_counter= 9, adress_state=1, stop=1, start=0
Time=2490000, scl=0, sda=00000000, address=00, read=0, write=1, bit_counter= 0, adress_state=1, stop=1, start=0
Time=2510000, scl=0, sda=00000000, address=00, read=0, write=1, bit_counter= 1, adress_state=1, stop=1, start=0
Time=2530000, scl=0, sda=00000000, address=00, read=0, write=1, bit_counter= 2, adress_state=1, stop=1, start=0
Time=2550000, scl=0, sda=00000000, address=00, read=0, write=1, bit_counter= 3, adress_state=1, stop=1, start=0
Time=2570000, scl=0, sda=00000000, address=00, read=0, write=1, bit_counter= 4, adress_state=1, stop=1, start=0
Time=2590000, scl=0, sda=00000000, address=00, read=0, write=1, bit_counter= 5, adress_state=1, stop=1, start=0
Time=2610000, scl=0, sda=00000000, address=00, read=0, write=1, bit_counter= 6, adress_state=1, stop=1, start=0
Time=2630000, scl=0, sda=00000000, address=00, read=0, write=1, bit_counter= 7, adress_state=1, stop=1, start=0
Time=2650000, scl=0, sda=00000000, address=00, read=0, write=1, bit_counter= 8, adress_state=1, stop=1, start=0
Time=2670000, scl=0, sda=00000000, address=00, read=0, write=0, bit_counter= 0, adress_state=1, stop=1, start=0
Time=2690000, scl=1, sda=00000000, address=00, read=0, write=0, bit_counter= 0, adress_state=1, stop=1, start=1
Time=2710000, scl=1, sda=00000000, address=00, read=0, write=0, bit_counter= 1, adress_state=1, stop=1, start=1
Time=2730000, scl=1, sda=00000000, address=00, read=0, write=0, bit_counter= 2, adress_state=1, stop=1, start=1
Time=2750000, scl=1, sda=00000000, address=00, read=0, write=0, bit_counter= 3, adress_state=1, stop=1, start=1
Time=2770000, scl=1, sda=00000000, address=00, read=0, write=0, bit_counter= 4, adress_state=1, stop=1, start=1
Time=2790000, scl=1, sda=00000000, address=00, read=0, write=0, bit_counter= 5, adress_state=1, stop=1, start=1
Time=2810000, scl=1, sda=00000000, address=00, read=0, write=0, bit_counter= 6, adress_state=1, stop=1, start=1
Time=2830000, scl=1, sda=00000000, address=00, read=0, write=0, bit_counter= 7, adress_state=1, stop=1, start=1
Time=2850000, scl=1, sda=00000000, address=00, read=0, write=0, bit_counter= 8, adress_state=1, stop=1, start=1
Time=2870000, scl=1, sda=00000000, address=00, read=0, write=1, bit_counter= 9, adress_state=1, stop=1, start=0
Time=2890000, scl=0, sda=00000000, address=00, read=0, write=1, bit_counter= 0, adress_state=1, stop=1, start=0
Time=2910000, scl=0, sda=00000000, address=00, read=0, write=1, bit_counter= 1, adress_state=1, stop=1, start=0
Time=2930000, scl=0, sda=00000000, address=00, read=0, write=1, bit_counter= 2, adress_state=1, stop=1, start=0
Time=2950000, scl=0, sda=00000000, address=00, read=0, write=1, bit_counter= 3, adress_state=1, stop=1, start=0
Time=2970000, scl=0, sda=00000000, address=00, read=0, write=1, bit_counter= 4, adress_state=1, stop=1, start=0
Time=2990000, scl=0, sda=00000000, address=00, read=0, write=1, bit_counter= 5, adress_state=1, stop=1, start=0
Time=3010000, scl=0, sda=00000000, address=00, read=0, write=1, bit_counter= 6, adress_state=1, stop=1, start=0
Time=3030000, scl=0, sda=00000000, address=00, read=0, write=1, bit_counter= 7, adress_state=1, stop=1, start=0
Time=3050000, scl=0, sda=00000000, address=00, read=0, write=1, bit_counter= 8, adress_state=1, stop=1, start=0
Time=3070000, scl=0, sda=00000000, address=00, read=0, write=0, bit_counter= 0, adress_state=1, stop=1, start=0
Time=3090000, scl=1, sda=00000000, address=00, read=0, write=0, bit_counter= 0, adress_state=1, stop=1, start=1
Time=3110000, scl=1, sda=00000000, address=00, read=0, write=0, bit_counter= 1, adress_state=1, stop=1, start=1
Time=3130000, scl=1, sda=00000000, address=00, read=0, write=0, bit_counter= 2, adress_state=1, stop=1, start=1
Time=3150000, scl=1, sda=00000000, address=00, read=0, write=0, bit_counter= 3, adress_state=1, stop=1, start=1
Time=3170000, scl=1, sda=00000000, address=00, read=0, write=0, bit_counter= 4, adress_state=1, stop=1, start=1
Time=3190000, scl=1, sda=00000000, address=00, read=0, write=0, bit_counter= 5, adress_state=1, stop=1, start=1
Time=3210000, scl=1, sda=00000000, address=00, read=0, write=0, bit_counter= 6, adress_state=1, stop=1, start=1
Time=3230000, scl=1, sda=00000000, address=00, read=0, write=0, bit_counter= 7, adress_state=1, stop=1, start=1
Time=3250000, scl=1, sda=00000000, address=00, read=0, write=0, bit_counter= 8, adress_state=1, stop=1, start=1
Time=3270000, scl=1, sda=00000000, address=00, read=0, write=1, bit_counter= 9, adress_state=1, stop=1, start=0
Time=3290000, scl=0, sda=00000000, address=00, read=0, write=1, bit_counter= 0, adress_state=1, stop=1, start=0
Time=3310000, scl=0, sda=00000000, address=00, read=0, write=1, bit_counter= 1, adress_state=1, stop=1, start=0
Time=3330000, scl=0, sda=00000000, address=00, read=0, write=1, bit_counter= 2, adress_state=1, stop=1, start=0
Time=3350000, scl=0, sda=00000000, address=00, read=0, write=1, bit_counter= 3, adress_state=1, stop=1, start=0
Time=3370000, scl=0, sda=00000000, address=00, read=0, write=1, bit_counter= 4, adress_state=1, stop=1, start=0
Time=3390000, scl=0, sda=00000000, address=00, read=0, write=1, bit_counter= 5, adress_state=1, stop=1, start=0
Time=3410000, scl=0, sda=00000000, address=00, read=0, write=1, bit_counter= 6, adress_state=1, stop=1, start=0
Time=3430000, scl=0, sda=00000000, address=00, read=0, write=1, bit_counter= 7, adress_state=1, stop=1, start=0
Time=3450000, scl=0, sda=00000000, address=00, read=0, write=1, bit_counter= 8, adress_state=1, stop=1, start=0
Time=3470000, scl=0, sda=00000000, address=00, read=0, write=0, bit_counter= 0, adress_state=1, stop=1, start=0
Time=3490000, scl=1, sda=00000000, address=00, read=0, write=0, bit_counter= 0, adress_state=1, stop=1, start=1
Time=3510000, scl=1, sda=00000000, address=00, read=0, write=0, bit_counter= 1, adress_state=1, stop=1, start=1
Time=3530000, scl=1, sda=00000000, address=00, read=0, write=0, bit_counter= 2, adress_state=1, stop=1, start=1
Time=3550000, scl=1, sda=00000000, address=00, read=0, write=0, bit_counter= 3, adress_state=1, stop=1, start=1
Time=3570000, scl=1, sda=00000000, address=00, read=0, write=0, bit_counter= 4, adress_state=1, stop=1, start=1
Time=3590000, scl=1, sda=00000000, address=00, read=0, write=0, bit_counter= 5, adress_state=1, stop=1, start=1
Time=3610000, scl=1, sda=00000000, address=00, read=0, write=0, bit_counter= 6, adress_state=1, stop=1, start=1
Time=3630000, scl=1, sda=00000000, address=00, read=0, write=0, bit_counter= 7, adress_state=1, stop=1, start=1
Time=3650000, scl=1, sda=00000000, address=00, read=0, write=0, bit_counter= 8, adress_state=1, stop=1, start=1
Time=3670000, scl=1, sda=00000000, address=00, read=0, write=1, bit_counter= 9, adress_state=1, stop=1, start=0
Time=3690000, scl=0, sda=00000000, address=00, read=0, write=1, bit_counter= 0, adress_state=1, stop=1, start=0
Time=3710000, scl=0, sda=00000000, address=00, read=0, write=1, bit_counter= 1, adress_state=1, stop=1, start=0
Time=3730000, scl=0, sda=00000000, address=00, read=0, write=1, bit_counter= 2, adress_state=1, stop=1, start=0
Time=3750000, scl=0, sda=00000000, address=00, read=0, write=1, bit_counter= 3, adress_state=1, stop=1, start=0
Time=3770000, scl=0, sda=00000000, address=00, read=0, write=1, bit_counter= 4, adress_state=1, stop=1, start=0
Time=3790000, scl=0, sda=00000000, address=00, read=0, write=1, bit_counter= 5, adress_state=1, stop=1, start=0
Time=3810000, scl=0, sda=00000000, address=00, read=0, write=1, bit_counter= 6, adress_state=1, stop=1, start=0
Time=3830000, scl=0, sda=00000000, address=00, read=0, write=1, bit_counter= 7, adress_state=1, stop=1, start=0
Time=3850000, scl=0, sda=00000000, address=00, read=0, write=1, bit_counter= 8, adress_state=1, stop=1, start=0
Time=3870000, scl=0, sda=00000000, address=00, read=0, write=0, bit_counter= 0, adress_state=1, stop=1, start=0
Time=3890000, scl=1, sda=00000000, address=00, read=0, write=0, bit_counter= 0, adress_state=1, stop=1, start=1
Time=3910000, scl=1, sda=00000000, address=00, read=0, write=0, bit_counter= 1, adress_state=1, stop=1, start=1
Time=3930000, scl=1, sda=00000000, address=00, read=0, write=0, bit_counter= 2, adress_state=1, stop=1, start=1
Time=3950000, scl=1, sda=00000000, address=00, read=0, write=0, bit_counter= 3, adress_state=1, stop=1, start=1
Time=3970000, scl=1, sda=00000000, address=00, read=0, write=0, bit_counter= 4, adress_state=1, stop=1, start=1
Time=3990000, scl=1, sda=00000000, address=00, read=0, write=0, bit_counter= 5, adress_state=1, stop=1, start=1
Time=4010000, scl=1, sda=00000000, address=00, read=0, write=0, bit_counter= 6, adress_state=1, stop=1, start=1
Time=4030000, scl=1, sda=00000000, address=00, read=0, write=0, bit_counter= 7, adress_state=1, stop=1, start=1
Time=4050000, scl=1, sda=00000000, address=00, read=0, write=0, bit_counter= 8, adress_state=1, stop=1, start=1
Time=4070000, scl=1, sda=00000000, address=00, read=0, write=1, bit_counter= 9, adress_state=1, stop=1, start=0
Time=4090000, scl=0, sda=zzzzzzzz, address=00, read=0, write=1, bit_counter= 0, adress_state=1, stop=1, start=0
Time=4110000, scl=0, sda=zzzzzzzz, address=00, read=0, write=1, bit_counter= 1, adress_state=1, stop=1, start=0
Time=4130000, scl=0, sda=zzzzzzzz, address=00, read=0, write=1, bit_counter= 2, adress_state=1, stop=1, start=0
Time=4150000, scl=0, sda=zzzzzzzz, address=00, read=0, write=1, bit_counter= 3, adress_state=1, stop=1, start=0
Time=4170000, scl=0, sda=zzzzzzzz, address=00, read=0, write=1, bit_counter= 4, adress_state=1, stop=1, start=0
Time=4190000, scl=0, sda=zzzzzzzz, address=00, read=0, write=1, bit_counter= 5, adress_state=1, stop=1, start=0
Time=4210000, scl=0, sda=00000000, address=00, read=0, write=1, bit_counter= 6, adress_state=1, stop=1, start=0
Time=4230000, scl=0, sda=zzzzzzzz, address=00, read=0, write=1, bit_counter= 7, adress_state=1, stop=1, start=0
Time=4250000, scl=0, sda=00000000, address=00, read=0, write=1, bit_counter= 8, adress_state=1, stop=1, start=0
Time=4270000, scl=0, sda=zzzzzzzz, address=00, read=0, write=0, bit_counter= 0, adress_state=1, stop=1, start=0
Time=4290000, scl=1, sda=zzzzzzzz, address=00, read=0, write=0, bit_counter= 0, adress_state=1, stop=1, start=x
Time=4310000, scl=1, sda=zzzzzzzz, address=00, read=0, write=0, bit_counter= 0, adress_state=0, stop=1, start=x

=== Test 3: Data Write ===
Time=4450000, scl=1, sda=00000000, address=00, read=0, write=0, bit_counter= 0, adress_state=0, stop=1, start=1
Time=4470000, scl=1, sda=00000000, address=00, read=0, write=0, bit_counter= 1, adress_state=0, stop=1, start=1
Time=4490000, scl=0, sda=00000000, address=00, read=0, write=0, bit_counter= 2, adress_state=0, stop=1, start=0
Time=4690000, scl=1, sda=00000000, address=00, read=0, write=0, bit_counter= 2, adress_state=0, stop=1, start=1
Time=4710000, scl=1, sda=00000000, address=00, read=0, write=0, bit_counter= 3, adress_state=0, stop=1, start=1
Time=4730000, scl=1, sda=00000000, address=00, read=0, write=0, bit_counter= 4, adress_state=0, stop=1, start=1
Time=4750000, scl=1, sda=00000000, address=00, read=0, write=0, bit_counter= 5, adress_state=0, stop=1, start=1
Time=4770000, scl=1, sda=00000000, address=00, read=0, write=0, bit_counter= 6, adress_state=0, stop=1, start=1
Time=4790000, scl=1, sda=00000000, address=00, read=0, write=0, bit_counter= 7, adress_state=0, stop=1, start=1
Time=4810000, scl=1, sda=00000000, address=00, read=0, write=0, bit_counter= 8, adress_state=0, stop=1, start=1
Time=4830000, scl=1, sda=00000000, address=00, read=0, write=1, bit_counter= 9, adress_state=0, stop=1, start=0
Time=4850000, scl=1, sda=00000000, address=00, read=0, write=1, bit_counter= 0, adress_state=1, stop=1, start=1
Time=4870000, scl=1, sda=00000000, address=00, read=0, write=1, bit_counter= 1, adress_state=1, stop=1, start=1
Time=4890000, scl=0, sda=00000000, address=00, read=0, write=1, bit_counter= 2, adress_state=1, stop=1, start=0
Time=4910000, scl=0, sda=zzzzzzzz, address=00, read=0, write=1, bit_counter= 3, adress_state=1, stop=1, start=0
Time=4930000, scl=0, sda=zzzzzzzz, address=00, read=0, write=1, bit_counter= 4, adress_state=1, stop=1, start=0
Time=4950000, scl=0, sda=zzzzzzzz, address=00, read=0, write=1, bit_counter= 5, adress_state=1, stop=1, start=0
Time=4970000, scl=0, sda=00000000, address=00, read=0, write=1, bit_counter= 6, adress_state=1, stop=1, start=0
Time=4990000, scl=0, sda=zzzzzzzz, address=00, read=0, write=1, bit_counter= 7, adress_state=1, stop=1, start=0
Time=5010000, scl=0, sda=00000000, address=00, read=0, write=1, bit_counter= 8, adress_state=1, stop=1, start=0
Time=5030000, scl=0, sda=zzzzzzzz, address=00, read=0, write=0, bit_counter= 0, adress_state=1, stop=1, start=0
Time=5090000, scl=1, sda=zzzzzzzz, address=00, read=0, write=0, bit_counter= 0, adress_state=1, stop=1, start=x
Time=5110000, scl=1, sda=zzzzzzzz, address=00, read=0, write=0, bit_counter= 0, adress_state=0, stop=1, start=x
Time=5290000, scl=0, sda=zzzzzzzz, address=00, read=0, write=0, bit_counter= 0, adress_state=0, stop=1, start=0
Time=5295000, scl=0, sda=00000000, address=00, read=0, write=0, bit_counter= 0, adress_state=0, stop=1, start=0
Time=5490000, scl=1, sda=00000000, address=00, read=0, write=0, bit_counter= 0, adress_state=0, stop=1, start=1
Time=5510000, scl=1, sda=00000000, address=00, read=0, write=0, bit_counter= 1, adress_state=0, stop=1, start=1
Time=5530000, scl=1, sda=00000000, address=00, read=0, write=0, bit_counter= 2, adress_state=0, stop=1, start=1
Time=5550000, scl=1, sda=00000000, address=00, read=0, write=0, bit_counter= 3, adress_state=0, stop=1, start=1
Time=5570000, scl=1, sda=00000000, address=00, read=0, write=0, bit_counter= 4, adress_state=0, stop=1, start=1
Time=5590000, scl=1, sda=00000000, address=00, read=0, write=0, bit_counter= 5, adress_state=0, stop=1, start=1
Time=5610000, scl=1, sda=00000000, address=00, read=0, write=0, bit_counter= 6, adress_state=0, stop=1, start=1
Time=5630000, scl=1, sda=00000000, address=00, read=0, write=0, bit_counter= 7, adress_state=0, stop=1, start=1
Time=5650000, scl=1, sda=00000000, address=00, read=0, write=0, bit_counter= 8, adress_state=0, stop=1, start=1
Time=5670000, scl=1, sda=00000000, address=00, read=0, write=1, bit_counter= 9, adress_state=0, stop=1, start=0
Time=5690000, scl=0, sda=00000000, address=00, read=0, write=1, bit_counter= 0, adress_state=1, stop=1, start=0
Time=5695000, scl=0, sda=zzzzzzzz, address=00, read=0, write=1, bit_counter= 0, adress_state=1, stop=1, start=0
Time=5710000, scl=0, sda=zzzzzzzz, address=00, read=0, write=1, bit_counter= 1, adress_state=1, stop=1, start=0
Time=5730000, scl=0, sda=zzzzzzzz, address=00, read=0, write=1, bit_counter= 2, adress_state=1, stop=1, start=0
Time=5750000, scl=0, sda=zzzzzzzz, address=00, read=0, write=1, bit_counter= 3, adress_state=1, stop=1, start=0
Time=5770000, scl=0, sda=zzzzzzzz, address=00, read=0, write=1, bit_counter= 4, adress_state=1, stop=1, start=0
Time=5790000, scl=0, sda=zzzzzzzz, address=00, read=0, write=1, bit_counter= 5, adress_state=1, stop=1, start=0
Time=5810000, scl=0, sda=00000000, address=00, read=0, write=1, bit_counter= 6, adress_state=1, stop=1, start=0
Time=5830000, scl=0, sda=zzzzzzzz, address=00, read=0, write=1, bit_counter= 7, adress_state=1, stop=1, start=0
Time=5850000, scl=0, sda=00000000, address=00, read=0, write=1, bit_counter= 8, adress_state=1, stop=1, start=0
Time=5870000, scl=0, sda=zzzzzzzz, address=00, read=0, write=0, bit_counter= 0, adress_state=1, stop=1, start=0
Time=5890000, scl=1, sda=zzzzzzzz, address=00, read=0, write=0, bit_counter= 0, adress_state=1, stop=1, start=x
Time=5910000, scl=1, sda=zzzzzzzz, address=00, read=0, write=0, bit_counter= 0, adress_state=0, stop=1, start=x
Time=6090000, scl=0, sda=zzzzzzzz, address=00, read=0, write=0, bit_counter= 0, adress_state=0, stop=1, start=0
Time=6095000, scl=0, sda=00000000, address=00, read=0, write=0, bit_counter= 0, adress_state=0, stop=1, start=0
Time=6290000, scl=1, sda=00000000, address=00, read=0, write=0, bit_counter= 0, adress_state=0, stop=1, start=1
Time=6310000, scl=1, sda=00000000, address=00, read=0, write=0, bit_counter= 1, adress_state=0, stop=1, start=1
Time=6330000, scl=1, sda=00000000, address=00, read=0, write=0, bit_counter= 2, adress_state=0, stop=1, start=1
Time=6350000, scl=1, sda=00000000, address=00, read=0, write=0, bit_counter= 3, adress_state=0, stop=1, start=1
Time=6370000, scl=1, sda=00000000, address=00, read=0, write=0, bit_counter= 4, adress_state=0, stop=1, start=1
Time=6390000, scl=1, sda=00000000, address=00, read=0, write=0, bit_counter= 5, adress_state=0, stop=1, start=1
Time=6410000, scl=1, sda=00000000, address=00, read=0, write=0, bit_counter= 6, adress_state=0, stop=1, start=1
Time=6430000, scl=1, sda=00000000, address=00, read=0, write=0, bit_counter= 7, adress_state=0, stop=1, start=1
Time=6450000, scl=1, sda=00000000, address=00, read=0, write=0, bit_counter= 8, adress_state=0, stop=1, start=1
Time=6470000, scl=1, sda=00000000, address=00, read=0, write=1, bit_counter= 9, adress_state=0, stop=1, start=0
Time=6490000, scl=0, sda=00000000, address=00, read=0, write=1, bit_counter= 0, adress_state=1, stop=1, start=0
Time=6495000, scl=0, sda=zzzzzzzz, address=00, read=0, write=1, bit_counter= 0, adress_state=1, stop=1, start=0
Time=6510000, scl=0, sda=zzzzzzzz, address=00, read=0, write=1, bit_counter= 1, adress_state=1, stop=1, start=0
Time=6530000, scl=0, sda=zzzzzzzz, address=00, read=0, write=1, bit_counter= 2, adress_state=1, stop=1, start=0
Time=6550000, scl=0, sda=zzzzzzzz, address=00, read=0, write=1, bit_counter= 3, adress_state=1, stop=1, start=0
Time=6570000, scl=0, sda=zzzzzzzz, address=00, read=0, write=1, bit_counter= 4, adress_state=1, stop=1, start=0
Time=6590000, scl=0, sda=zzzzzzzz, address=00, read=0, write=1, bit_counter= 5, adress_state=1, stop=1, start=0
Time=6610000, scl=0, sda=00000000, address=00, read=0, write=1, bit_counter= 6, adress_state=1, stop=1, start=0
Time=6630000, scl=0, sda=zzzzzzzz, address=00, read=0, write=1, bit_counter= 7, adress_state=1, stop=1, start=0
Time=6650000, scl=0, sda=00000000, address=00, read=0, write=1, bit_counter= 8, adress_state=1, stop=1, start=0
Time=6670000, scl=0, sda=zzzzzzzz, address=00, read=0, write=0, bit_counter= 0, adress_state=1, stop=1, start=0
Time=6690000, scl=1, sda=zzzzzzzz, address=00, read=0, write=0, bit_counter= 0, adress_state=1, stop=1, start=x
Time=6710000, scl=1, sda=zzzzzzzz, address=00, read=0, write=0, bit_counter= 0, adress_state=0, stop=1, start=x
Time=6890000, scl=0, sda=zzzzzzzz, address=00, read=0, write=0, bit_counter= 0, adress_state=0, stop=1, start=0
Time=6895000, scl=0, sda=00000000, address=00, read=0, write=0, bit_counter= 0, adress_state=0, stop=1, start=0
Time=7090000, scl=1, sda=00000000, address=00, read=0, write=0, bit_counter= 0, adress_state=0, stop=1, start=1
Time=7110000, scl=1, sda=00000000, address=00, read=0, write=0, bit_counter= 1, adress_state=0, stop=1, start=1
Time=7130000, scl=1, sda=00000000, address=00, read=0, write=0, bit_counter= 2, adress_state=0, stop=1, start=1
Time=7150000, scl=1, sda=00000000, address=00, read=0, write=0, bit_counter= 3, adress_state=0, stop=1, start=1
Time=7170000, scl=1, sda=00000000, address=00, read=0, write=0, bit_counter= 4, adress_state=0, stop=1, start=1
Time=7190000, scl=1, sda=00000000, address=00, read=0, write=0, bit_counter= 5, adress_state=0, stop=1, start=1
Time=7210000, scl=1, sda=00000000, address=00, read=0, write=0, bit_counter= 6, adress_state=0, stop=1, start=1
Time=7230000, scl=1, sda=00000000, address=00, read=0, write=0, bit_counter= 7, adress_state=0, stop=1, start=1
Time=7250000, scl=1, sda=00000000, address=00, read=0, write=0, bit_counter= 8, adress_state=0, stop=1, start=1
Time=7270000, scl=1, sda=00000000, address=00, read=0, write=1, bit_counter= 9, adress_state=0, stop=1, start=0
Time=7290000, scl=0, sda=00000000, address=00, read=0, write=1, bit_counter= 0, adress_state=1, stop=1, start=0
Time=7295000, scl=0, sda=zzzzzzzz, address=00, read=0, write=1, bit_counter= 0, adress_state=1, stop=1, start=0
Time=7310000, scl=0, sda=zzzzzzzz, address=00, read=0, write=1, bit_counter= 1, adress_state=1, stop=1, start=0
Time=7330000, scl=0, sda=zzzzzzzz, address=00, read=0, write=1, bit_counter= 2, adress_state=1, stop=1, start=0
Time=7350000, scl=0, sda=zzzzzzzz, address=00, read=0, write=1, bit_counter= 3, adress_state=1, stop=1, start=0
Time=7370000, scl=0, sda=zzzzzzzz, address=00, read=0, write=1, bit_counter= 4, adress_state=1, stop=1, start=0
Time=7390000, scl=0, sda=zzzzzzzz, address=00, read=0, write=1, bit_counter= 5, adress_state=1, stop=1, start=0
Time=7410000, scl=0, sda=00000000, address=00, read=0, write=1, bit_counter= 6, adress_state=1, stop=1, start=0
Time=7430000, scl=0, sda=zzzzzzzz, address=00, read=0, write=1, bit_counter= 7, adress_state=1, stop=1, start=0
Time=7450000, scl=0, sda=00000000, address=00, read=0, write=1, bit_counter= 8, adress_state=1, stop=1, start=0
Time=7470000, scl=0, sda=zzzzzzzz, address=00, read=0, write=0, bit_counter= 0, adress_state=1, stop=1, start=0
Time=7490000, scl=1, sda=zzzzzzzz, address=00, read=0, write=0, bit_counter= 0, adress_state=1, stop=1, start=x
Time=7510000, scl=1, sda=zzzzzzzz, address=00, read=0, write=0, bit_counter= 0, adress_state=0, stop=1, start=x
Time=7690000, scl=0, sda=zzzzzzzz, address=00, read=0, write=0, bit_counter= 0, adress_state=0, stop=1, start=0
Time=7695000, scl=0, sda=00000000, address=00, read=0, write=0, bit_counter= 0, adress_state=0, stop=1, start=0
Time=7890000, scl=1, sda=00000000, address=00, read=0, write=0, bit_counter= 0, adress_state=0, stop=1, start=1
Time=7910000, scl=1, sda=00000000, address=00, read=0, write=0, bit_counter= 1, adress_state=0, stop=1, start=1
